{
    "KPlugin": {
        "Authors": [
            {
                "Email": "nicolas.fella@gmx.de",
                "Name": "Nicolas Fella",
                "Name[ast]": "Nicolas Fella",
                "Name[ca@valencia]": "Nicolas Fella",
                "Name[ca]": "Nicolas Fella",
                "Name[cs]": "Nicolas Fella",
                "Name[de]": "Nicolas Fella",
                "Name[en_GB]": "Nicolas Fella",
                "Name[es]": "Nicolas Fella",
                "Name[et]": "Nicolas Fella",
                "Name[eu]": "Nicolas Fella",
                "Name[fi]": "Nicolas Fella",
                "Name[fr]": "Nicolas Fella",
                "Name[gl]": "Nicolas Fella",
                "Name[it]": "Nicolas Fella",
                "Name[ko]": "Nicolas Fella",
                "Name[lt]": "Nicolas Fella",
                "Name[nl]": "Nicolas Fella",
                "Name[nn]": "Nicolas Fella",
                "Name[pl]": "Nicolas Fella",
                "Name[pt]": "Nicolas Fella",
                "Name[pt_BR]": "Nicolas Fella",
                "Name[ru]": "Nicolas Fella",
                "Name[sk]": "Nicolas Fella",
                "Name[sv]": "Nicolas Fella",
                "Name[uk]": "Nicolas Fella",
                "Name[x-test]": "xxNicolas Fellaxx",
                "Name[zh_CN]": "Nicolas Fella",
                "Name[zh_TW]": "Nicolas Fella"
            }
        ],
        "Description": "Use a connected device to take a photo",
        "Description[ast]": "Usa un preséu coneutáu pa facer una semeya",
        "Description[ca@valencia]": "Usa un dispositiu connectat per fer una fotografia",
        "Description[ca]": "Usa un dispositiu connectat per fer una fotografia",
        "Description[cs]": "Použít připojené zařízení pro pořízení fotografie",
        "Description[de]": "Ein Foto auf einem verbundenen Gerät aufnehmen",
        "Description[en_GB]": "Use a connected device to take a photo",
        "Description[es]": "Usar un dispositivo conectado para tomar una fotografía",
        "Description[et]": "Ühendatud seadme kasutamine foto tegemiseks",
        "Description[eu]": "Erabili konektatutako gailu bat argazki bat ateratzeko",
        "Description[fi]": "Ota yhdistetyllä laitteella valokuva",
        "Description[fr]": "Utiliser un périphérique connecté pour prendre une photo",
        "Description[gl]": "Usar un dispositivo conectado para sacar unha foto",
        "Description[it]": "Usa un dispositivo connesso per scattare una foto",
        "Description[ko]": "연결된 장치로 사진 찍기",
        "Description[lt]": "Naudoti prijungtą įrenginį, siekiant padaryti nuotrauką",
        "Description[nl]": "Gebruik een verbonden apparaat om een foto te nemen",
        "Description[nn]": "Bruk tilkopla eining til å ta eit bilete",
        "Description[pl]": "Użyj podłączonego urządzenia do wykonania zdjęcia",
        "Description[pt]": "Usar um dispositivo ligado para tirar uma fotografia",
        "Description[pt_BR]": "Usa um dispositivo conectado para tirar uma foto",
        "Description[ru]": "Создание фотографий при помощи подключённого устройства",
        "Description[sk]": "Použiť pripojené zariadenie na vytvorenie fotky",
        "Description[sv]": "Använd en ansluten apparat för att ta ett foto",
        "Description[uk]": "Скористатися з'єднаним пристроєм для фотографування",
        "Description[x-test]": "xxUse a connected device to take a photoxx",
        "Description[zh_CN]": "使用连接的设备拍照",
        "Description[zh_TW]": "使用連結裝置拍照",
        "EnabledByDefault": true,
        "Icon": "camera-photo",
        "Id": "kdeconnect_photo",
        "License": "GPL",
        "Name": "Photo",
        "Name[ast]": "Semeya",
        "Name[ca@valencia]": "Fotografia",
        "Name[ca]": "Fotografia",
        "Name[cs]": "Fotka",
        "Name[de]": "Foto",
        "Name[en_GB]": "Photo",
        "Name[es]": "Fotografía",
        "Name[et]": "Foto",
        "Name[eu]": "Argazkia",
        "Name[fi]": "Valokuva",
        "Name[fr]": "Photo",
        "Name[gl]": "Foto",
        "Name[it]": "Foto",
        "Name[ko]": "사진",
        "Name[lt]": "Nuotrauka",
        "Name[nl]": "Foto",
        "Name[nn]": "Foto",
        "Name[pl]": "Zdjęcie",
        "Name[pt]": "Fotografia",
        "Name[pt_BR]": "Foto",
        "Name[ru]": "Фотографии",
        "Name[sk]": "Fotka",
        "Name[sv]": "Foto",
        "Name[tg]": "Сурат",
        "Name[uk]": "Фото",
        "Name[x-test]": "xxPhotoxx",
        "Name[zh_CN]": "照片",
        "Name[zh_TW]": "相片",
        "ServiceTypes": [
            "KdeConnect/Plugin"
        ],
        "Version": "0.1",
        "Website": "https://nicolasfella.wordpress.com"
    },
    "X-KdeConnect-OutgoingPacketType": [
        "kdeconnect.photo.request"
    ],
    "X-KdeConnect-SupportedPacketType": [
        "kdeconnect.photo"
    ]
}
