{
    "KPlugin": {
        "Category": "Utilities",
        "Description": "Send file to other device using KDE Connect",
        "Description[ca]": "Envia fitxers a un altre dispositiu mitjançant el KDE Connect",
        "Description[cs]": "Poslat soubor na jiné zařízení přes KDE Connect",
        "Description[en_GB]": "Send file to other device using KDE Connect",
        "Description[es]": "Enviar archivo a otro dispositivo usando KDE Connect",
        "Description[et]": "Faili saatmine teise seadmesse KDE Connecti kaudu",
        "Description[eu]": "Bidali fitxategia beste gailu batera KDE Connect erabiliz",
        "Description[fr]": "Envoyer le fichier vers un autre appareil KDE Connect",
        "Description[gl]": "Enviar o ficheiro a outro dispositivo usando KDE Connect",
        "Description[it]": "Invia file a un altro dispositivo utilizzando KDE Connect",
        "Description[lt]": "Siųsti failą į kitą įrenginį naudojant KDE Connect",
        "Description[nl]": "Bestand naar ander apparaat versturen met KDE Connect",
        "Description[pt]": "Envia o ficheiro para outro dispositivo através do KDE Connect",
        "Description[pt_BR]": "Envia o arquivo para outro dispositivo usando o KDE Connect",
        "Description[ru]": "Передача файлов на другое устройство при помощи KDE Connect",
        "Description[sv]": "Skicka fil till en annan enhet med användning av KDE:s anslutningstjänst",
        "Description[uk]": "Надіслати файл на інший пристрій за допомогою KDE Connect",
        "Description[x-test]": "xxSend file to other device using KDE Connectxx",
        "Description[zh_TW]": "使用 KDE 連線傳送檔案至其他裝置",
        "Icon": "kdeconnect",
        "License": "GPL",
        "MimeTypes": [
            "application/octet-stream"
        ],
        "Name": "Send file via KDE Connect",
        "Name[ca]": "Envia el fitxer a través del KDE Connect",
        "Name[cs]": "Poslat soubor přes KDE Connect",
        "Name[en_GB]": "Send file via KDE Connect",
        "Name[es]": "Enviar archivo con KDE Connect",
        "Name[et]": "Faili saatmine KDE Connecti kaudu",
        "Name[eu]": "Bidali fitxategia KDE  Connect bidez",
        "Name[fr]": "Envoyer le fichier via KDE Connect",
        "Name[gl]": "Enviar o ficheiro por KDE Connect",
        "Name[it]": "Invia file tramite KDE Connect",
        "Name[lt]": "Siųsti failą per KDE Connect",
        "Name[nl]": "Bestand via KDE Connect versturen",
        "Name[pt]": "Enviar o ficheiro pelo KDE Connect",
        "Name[pt_BR]": "Enviar arquivo via KDE Connect",
        "Name[ru]": "Отправить файл через KDE Connect",
        "Name[sv]": "Skicka fil via KDE:s anslutningstjänst",
        "Name[uk]": "Надіслати файл за допомогою KDE Connect",
        "Name[x-test]": "xxSend file via KDE Connectxx",
        "Name[zh_TW]": "使用 KDE 連線傳送檔案",
        "ServiceTypes": [
            "KFileItemAction/Plugin"
        ]
    }
}
